prog2/wave.vcd
$version Generated by VerilatedVcd $end
$date Thu Oct 17 09:27:53 2019
 $end
$timescale   1ns $end

 $scope module TOP $end
  $var wire  1 o alu_ci $end
  $var wire  1 n alu_comp_b $end
  $var wire  2 m alu_func [1:0] $end
  $var wire  2 p alu_reg_a [1:0] $end
  $var wire  2 q alu_reg_b [1:0] $end
  $var wire  1 r alu_so $end
  $var wire  1 s alu_uo $end
  $var wire  1 h mar_we $end
  $var wire  1 l mbr_alu $end
  $var wire  1 j mbr_in_we $end
  $var wire  1 i mbr_out_we $end
  $var wire  1 k mem_we $end
  $var wire  2 f reg_addr_we [1:0] $end
  $var wire  1 g reg_we $end
  $var wire  1 e reset $end
  $scope module top $end
   $var wire 32 | N [31:0] $end
   $var wire  8 ` addr_out [7:0] $end
   $var wire  8 $ alu_a [7:0] $end
   $var wire  8 % alu_b [7:0] $end
   $var wire  1 o alu_ci $end
   $var wire  1 n alu_comp_b $end
   $var wire  2 m alu_func [1:0] $end
   $var wire  8 & alu_q [7:0] $end
   $var wire  2 p alu_reg_a [1:0] $end
   $var wire  2 q alu_reg_b [1:0] $end
   $var wire  1 r alu_so $end
   $var wire  1 s alu_uo $end
   $var wire  8 Q d_in [7:0] $end
   $var wire  8 _ d_out [7:0] $end
   $var wire  1 h mar_we $end
   $var wire  1 l mbr_alu $end
   $var wire  8 ^ mbr_in [7:0] $end
   $var wire  1 j mbr_in_we $end
   $var wire  1 i mbr_out_we $end
   $var wire  1 k mem_we $end
   $var wire  2 f reg_addr_we [1:0] $end
   $var wire  8 ' reg_in [7:0] $end
   $var wire  1 g reg_we $end
   $var wire  8 R regout(0) [7:0] $end
   $var wire  8 S regout(1) [7:0] $end
   $var wire  8 T regout(2) [7:0] $end
   $var wire  8 U regout(3) [7:0] $end
   $var wire  4 # regwe [3:0] $end
   $var wire  1 e reset $end
   $scope module alu_inst $end
    $var wire 32 | N [31:0] $end
    $var wire  8 $ a [7:0] $end
    $var wire  8 % b [7:0] $end
    $var wire  9 , cc [8:0] $end
    $var wire  1 o ci $end
    $var wire  1 n comp $end
    $var wire  2 m f [1:0] $end
    $var wire  8 & q [7:0] $end
    $var wire  1 r so $end
    $var wire  1 s uo $end
    $scope module genblk1(0) $end
     $scope module a_inst $end
      $var wire  1 . a $end
      $var wire  1 / b $end
      $var wire  1 - ci $end
      $var wire  1 t co $end
      $var wire  1 n comp $end
      $var wire  2 m f [1:0] $end
      $var wire  1 0 q $end
     $upscope $end
    $upscope $end
    $scope module genblk1(1) $end
     $scope module a_inst $end
      $var wire  1 2 a $end
      $var wire  1 3 b $end
      $var wire  1 1 ci $end
      $var wire  1 u co $end
      $var wire  1 n comp $end
      $var wire  2 m f [1:0] $end
      $var wire  1 4 q $end
     $upscope $end
    $upscope $end
    $scope module genblk1(2) $end
     $scope module a_inst $end
      $var wire  1 6 a $end
      $var wire  1 7 b $end
      $var wire  1 5 ci $end
      $var wire  1 v co $end
      $var wire  1 n comp $end
      $var wire  2 m f [1:0] $end
      $var wire  1 8 q $end
     $upscope $end
    $upscope $end
    $scope module genblk1(3) $end
     $scope module a_inst $end
      $var wire  1 : a $end
      $var wire  1 ; b $end
      $var wire  1 9 ci $end
      $var wire  1 w co $end
      $var wire  1 n comp $end
      $var wire  2 m f [1:0] $end
      $var wire  1 < q $end
     $upscope $end
    $upscope $end
    $scope module genblk1(4) $end
     $scope module a_inst $end
      $var wire  1 > a $end
      $var wire  1 ? b $end
      $var wire  1 = ci $end
      $var wire  1 x co $end
      $var wire  1 n comp $end
      $var wire  2 m f [1:0] $end
      $var wire  1 @ q $end
     $upscope $end
    $upscope $end
    $scope module genblk1(5) $end
     $scope module a_inst $end
      $var wire  1 B a $end
      $var wire  1 C b $end
      $var wire  1 A ci $end
      $var wire  1 y co $end
      $var wire  1 n comp $end
      $var wire  2 m f [1:0] $end
      $var wire  1 D q $end
     $upscope $end
    $upscope $end
    $scope module genblk1(6) $end
     $scope module a_inst $end
      $var wire  1 F a $end
      $var wire  1 G b $end
      $var wire  1 E ci $end
      $var wire  1 z co $end
      $var wire  1 n comp $end
      $var wire  2 m f [1:0] $end
      $var wire  1 H q $end
     $upscope $end
    $upscope $end
    $scope module genblk1(7) $end
     $scope module a_inst $end
      $var wire  1 J a $end
      $var wire  1 K b $end
      $var wire  1 I ci $end
      $var wire  1 { co $end
      $var wire  1 n comp $end
      $var wire  2 m f [1:0] $end
      $var wire  1 L q $end
     $upscope $end
    $upscope $end
   $upscope $end
   $scope module amux_inst $end
    $var wire 32 | N [31:0] $end
    $var wire  2 p a [1:0] $end
    $var wire  8 V i0 [7:0] $end
    $var wire  8 W i1 [7:0] $end
    $var wire  8 X i2 [7:0] $end
    $var wire  8 Y i3 [7:0] $end
    $var wire  8 $ o [7:0] $end
   $upscope $end
   $scope module bmux_inst $end
    $var wire 32 | N [31:0] $end
    $var wire  2 q a [1:0] $end
    $var wire  8 Z i0 [7:0] $end
    $var wire  8 [ i1 [7:0] $end
    $var wire  8 \ i2 [7:0] $end
    $var wire  8 ] i3 [7:0] $end
    $var wire  8 % o [7:0] $end
   $upscope $end
   $scope module demux_inst $end
    $var wire 32 } N [31:0] $end
    $var wire  2 f a [1:0] $end
    $var wire  1 g i $end
    $var wire  1 ( o0 [0:0] $end
    $var wire  1 ) o1 [0:0] $end
    $var wire  1 * o2 [0:0] $end
    $var wire  1 + o3 [0:0] $end
   $upscope $end
   $scope module reg_mux $end
    $var wire 32 | N [31:0] $end
    $var wire  1 l a $end
    $var wire  8 & i0 [7:0] $end
    $var wire  8 ^ i1 [7:0] $end
    $var wire  8 ' o [7:0] $end
   $upscope $end
   $scope module register_file(0) $end
    $scope module register_inst $end
     $var wire 32 | N [31:0] $end
     $var wire  8 ' din [7:0] $end
     $var wire  8 a do_r [7:0] $end
     $var wire  8 a dout [7:0] $end
     $var wire  1 e reset $end
     $var wire  1 M we $end
    $upscope $end
   $upscope $end
   $scope module register_file(1) $end
    $scope module register_inst $end
     $var wire 32 | N [31:0] $end
     $var wire  8 ' din [7:0] $end
     $var wire  8 b do_r [7:0] $end
     $var wire  8 b dout [7:0] $end
     $var wire  1 e reset $end
     $var wire  1 N we $end
    $upscope $end
   $upscope $end
   $scope module register_file(2) $end
    $scope module register_inst $end
     $var wire 32 | N [31:0] $end
     $var wire  8 ' din [7:0] $end
     $var wire  8 c do_r [7:0] $end
     $var wire  8 c dout [7:0] $end
     $var wire  1 e reset $end
     $var wire  1 O we $end
    $upscope $end
   $upscope $end
   $scope module register_file(3) $end
    $scope module register_inst $end
     $var wire 32 | N [31:0] $end
     $var wire  8 ' din [7:0] $end
     $var wire  8 d do_r [7:0] $end
     $var wire  8 d dout [7:0] $end
     $var wire  1 e reset $end
     $var wire  1 P we $end
    $upscope $end
   $upscope $end
   $scope module umar $end
    $var wire 32 | N [31:0] $end
    $var wire  8 & din [7:0] $end
    $var wire  8 ` do_r [7:0] $end
    $var wire  8 ` dout [7:0] $end
    $var wire  1 e reset $end
    $var wire  1 h we $end
   $upscope $end
   $scope module umbr_in $end
    $var wire 32 | N [31:0] $end
    $var wire  8 Q din [7:0] $end
    $var wire  8 ^ do_r [7:0] $end
    $var wire  8 ^ dout [7:0] $end
    $var wire  1 e reset $end
    $var wire  1 j we $end
   $upscope $end
   $scope module umbr_out $end
    $var wire 32 | N [31:0] $end
    $var wire  8 & din [7:0] $end
    $var wire  8 _ do_r [7:0] $end
    $var wire  8 _ dout [7:0] $end
    $var wire  1 e reset $end
    $var wire  1 i we $end
   $upscope $end
   $scope module umem $end
    $var wire 32 | N [31:0] $end
    $var wire  8 ` ain [7:0] $end
    $var wire  8 _ din [7:0] $end
    $var wire  8 Q dout [7:0] $end
    $var wire  1 k we $end
   $upscope $end
  $upscope $end
 $upscope $end
$enddefinitions $end


#1
b0000 #
b00000000 $
b00000000 %
b00000000 &
b00000000 '
b0 (
b0 )
b0 *
b0 +
b000000000 ,
0-
0.
0/
00
01
02
03
04
05
06
07
08
09
0:
0;
0<
0=
0>
0?
0@
0A
0B
0C
0D
0E
0F
0G
0H
0I
0J
0K
0L
0M
0N
0O
0P
b00000000 Q
b00000000 R
b00000000 S
b00000000 T
b00000000 U
b00000000 V
b00000000 W
b00000000 X
b00000000 Y
b00000000 Z
b00000000 [
b00000000 \
b00000000 ]
b00000000 ^
b00000000 _
b00000000 `
b00000000 a
b00000000 b
b00000000 c
b00000000 d
0e
b00 f
0g
0h
0i
0j
0k
0l
b00 m
0n
0o
b00 p
b00 q
0r
0s
0t
0u
0v
0w
0x
0y
0z
0{
b00000000000000000000000000001000 |
b00000000000000000000000000000001 }
#2
#3
#4
#5
1e
#6
#7
#8
#9
#10
0e
#11
#12
#13
#14
#15
#16
#17
#18
#19
#20
#21
#22
#23
#24
#25
#26
#27
#28
#29
#30
b0010 #
b00000001 &
b00000001 '
b1 )
b000000001 ,
1-
10
1N
b01 f
1g
1o
b01 p
b01 q
#31
#32
#33
#34
#35
b0000 #
b00000001 $
b00000001 %
b00000011 &
b00000011 '
b0 )
b000000011 ,
1.
1/
11
14
0N
b00000001 S
b00000001 W
b00000001 [
b00000001 b
0g
1t
#36
#37
#38
#39
#40
b0010 #
b00000010 &
b00000010 '
b1 )
b000000010 ,
0-
00
1N
1g
0o
#41
#42
#43
#44
#45
b0000 #
b00000010 $
b00000010 %
b00000100 &
b00000100 '
b0 )
b000000100 ,
0.
0/
01
12
13
04
15
18
0N
b00000010 S
b00000010 W
b00000010 [
b00000010 b
0g
0t
1u
#46
#47
#48
#49
#50
b0010 #
b1 )
1N
1g
#51
#52
#53
#54
#55
b0000 #
b00000100 $
b00000100 %
b00001000 &
b00001000 '
b0 )
b000001000 ,
02
03
05
16
17
08
19
1<
0N
b00000100 S
b00000100 W
b00000100 [
b00000100 b
0g
0u
1v
#56
#57
#58
#59
#60
b0010 #
b1 )
1N
1g
#61
#62
#63
#64
#65
b0000 #
b00001000 $
b00001000 %
b00010000 &
b00010000 '
b0 )
b000010000 ,
06
07
09
1:
1;
0<
1=
1@
0N
b00001000 S
b00001000 W
b00001000 [
b00001000 b
0g
0v
1w
#66
#67
#68
#69
#70
b0010 #
b1 )
1N
1g
#71
#72
#73
#74
#75
b0000 #
b00010000 $
b00010000 %
b00100000 &
b00100000 '
b0 )
b000100000 ,
0:
0;
0=
1>
1?
0@
1A
1D
0N
b00010000 S
b00010000 W
b00010000 [
b00010000 b
0g
0w
1x
#76
#77
#78
#79
#80
b0010 #
b1 )
1N
1g
#81
#82
#83
#84
#85
b0000 #
b00100000 $
b00100000 %
b01000000 &
b01000000 '
b0 )
b001000000 ,
0>
0?
0A
1B
1C
0D
1E
1H
0N
b00100000 S
b00100000 W
b00100000 [
b00100000 b
0g
0x
1y
#86
#87
#88
#89
#90
b0010 #
b1 )
1N
1g
#91
#92
#93
#94
#95
b0000 #
b01000000 $
b01000000 %
b10000000 &
b10000000 '
b0 )
b010000000 ,
0B
0C
0E
1F
1G
0H
1I
1L
0N
b01000000 S
b01000000 W
b01000000 [
b01000000 b
0g
1r
0y
1z
#96
#97
#98
#99
#100
b0100 #
b00000000 %
b01000000 &
b01000000 '
b1 *
b000000000 ,
0G
1H
0I
0L
1O
b10 f
1g
b10 q
0r
0z
#101
#102
#103
#104
#105
b0000 #
b01000000 %
b10000000 &
b10000000 '
b0 *
b010000000 ,
1G
0H
1I
1L
0O
b01000000 T
b01000000 X
b01000000 \
b01000000 c
0g
1r
1z
#106
#107
#108
#109
#110
b0010 #
b00000000 $
b01000001 &
b01000001 '
b1 )
b000000001 ,
1-
10
0F
1H
0I
0L
1N
b01 f
1g
1o
b00 p
b01 q
0r
0z
#111
#112
#113
#114
#115
b0000 #
b01000001 %
b01000010 &
b01000010 '
b0 )
b000000011 ,
1/
00
11
14
0N
b01000001 S
b01000001 W
b01000001 [
b01000001 b
0g
1t
#116
#117
#118
#119
#120
b0100 #
b01000000 $
b01000000 %
b10000000 &
b10000000 '
b1 *
b010000000 ,
0-
0/
01
04
1F
0H
1I
1L
1O
b10 f
1g
0o
b10 p
b10 q
1r
0t
1z
#121
#122
#123
#124
#125
b0000 #
b10000000 $
b10000000 %
b00000000 &
b00000000 '
b0 *
b100000000 ,
0F
0G
0I
1J
1K
0L
0O
b10000000 T
b10000000 X
b10000000 \
b10000000 c
0g
1s
0z
1{
#126
#127
#128
#129
#130
b00000000 %
b10000000 &
b10000000 '
b000000000 ,
0K
1L
b00 f
1h
b00 q
0r
0s
0{
#131
#132
#133
#134
#135
b10000000 `
0h
#136
#137
#138
#139
#140
b01000001 $
b01000001 &
b01000001 '
1.
10
1F
1H
0J
0L
1i
b01 p
#141
#142
#143
#144
#145
b01000001 _
0i
#146
#147
#148
#149
#150
b00000000 $
b00000000 &
b00000000 '
0.
00
0F
0H
1k
b00 p
#151
#152
#153
#154
#155
b01000001 Q
0k
#156
#157
#158
#159
#160
b0010 #
b01000001 $
b01000010 &
b01000010 '
b1 )
b000000011 ,
1-
1.
11
14
1F
1H
1N
b01 f
1g
1o
b01 p
1t
#161
#162
#163
#164
#165
b0000 #
b01000010 $
b01000011 &
b01000011 '
b0 )
b000000001 ,
0.
10
01
12
0N
b01000010 S
b01000010 W
b01000010 [
b01000010 b
0g
0t
#166
#167
#168
#169
#170
b0100 #
b10000000 $
b10000001 &
b10000001 '
b1 *
02
04
0F
0H
1J
1L
1O
b10 f
1g
b10 p
#171
#172
#173
#174
#175
b0000 #
b10000001 $
b10000010 &
b10000010 '
b0 *
b000000011 ,
1.
00
11
14
0O
b10000001 T
b10000001 X
b10000001 \
b10000001 c
0g
1t
#176
#177
#178
#179
#180
b10000001 &
b10000001 '
b000000000 ,
0-
10
01
04
b00 f
1h
0o
0t
#181
#182
#183
#184
#185
b00000000 Q
b10000001 `
0h
#186
#187
#188
#189
#190
b01000010 $
b01000010 &
b01000010 '
0.
00
12
14
1F
1H
0J
0L
1i
b01 p
#191
#192
#193
#194
#195
b01000010 _
0i
#196
#197
#198
#199
#200
b00000000 $
b00000000 &
b00000000 '
02
04
0F
0H
1k
b00 p
#201
#202
#203
#204
#205
b01000010 Q
0k
#206
#207
#208
#209
#210
b0010 #
b01000010 $
b01000011 &
b01000011 '
b1 )
b000000001 ,
1-
10
12
14
1F
1H
1N
b01 f
1g
1o
b01 p
#211
#212
#213
#214
#215
b0000 #
b01000011 $
b01000100 &
b01000100 '
b0 )
b000000111 ,
1.
00
11
04
15
18
0N
b01000011 S
b01000011 W
b01000011 [
b01000011 b
0g
1t
1u
#216
#217
#218
#219
#220
b0100 #
b10000001 $
b10000010 &
b10000010 '
b1 *
b000000011 ,
02
14
05
08
0F
0H
1J
1L
1O
b10 f
1g
b10 p
0u
#221
#222
#223
#224
#225
b0000 #
b10000010 $
b10000011 &
b10000011 '
b0 *
b000000001 ,
0.
10
01
12
0O
b10000010 T
b10000010 X
b10000010 \
b10000010 c
0g
0t
#226
#227
#228
#229
#230
b10000010 &
b10000010 '
b000000000 ,
0-
00
b00 f
1h
0o
#231
#232
#233
#234
#235
b00000000 Q
b10000010 `
0h
#236
#237
#238
#239
#240
b01000011 $
b01000011 &
b01000011 '
1.
10
1F
1H
0J
0L
1i
b01 p
#241
#242
#243
#244
#245
b01000011 _
0i
#246
#247
#248
#249
#250
b00000000 $
b00000000 &
b00000000 '
0.
00
02
04
0F
0H
1k
b00 p
#251
#252
#253
#254
#255
b01000011 Q
0k
#256
#257
#258
#259
#260
b0010 #
b01000011 $
b01000100 &
b01000100 '
b1 )
b000000111 ,
1-
1.
11
12
15
18
1F
1H
1N
b01 f
1g
1o
b01 p
1t
1u
#261
#262
#263
#264
#265
b0000 #
b01000100 $
b01000101 &
b01000101 '
b0 )
b000000001 ,
0.
10
01
02
05
16
0N
b01000100 S
b01000100 W
b01000100 [
b01000100 b
0g
0t
0u
#266
#267
#268
#269
#270
b0100 #
b10000010 $
b10000011 &
b10000011 '
b1 *
12
14
06
08
0F
0H
1J
1L
1O
b10 f
1g
b10 p
#271
#272
#273
#274
#275
b0000 #
b10000011 $
b10000100 &
b10000100 '
b0 *
b000000111 ,
1.
00
11
04
15
18
0O
b10000011 T
b10000011 X
b10000011 \
b10000011 c
0g
1t
1u
#276
#277
#278
#279
#280
b10000011 &
b10000011 '
b000000000 ,
0-
10
01
14
05
08
b00 f
1h
0o
0t
0u
#281
#282
#283
#284
#285
b00000000 Q
b10000011 `
0h
#286
#287
#288
#289
#290
b01000100 $
b01000100 &
b01000100 '
0.
00
02
04
16
18
1F
1H
0J
0L
1i
b01 p
#291
#292
#293
#294
#295
b01000100 _
0i
#296
#297
#298
#299
#300
b00000000 $
b00000000 &
b00000000 '
06
08
0F
0H
1k
b00 p
#301
#302
#303
#304
#305
b01000100 Q
0k
#306
#307
#308
#309
#310
b0010 #
b01000100 $
b01000101 &
b01000101 '
b1 )
b000000001 ,
1-
10
16
18
1F
1H
1N
b01 f
1g
1o
b01 p
#311
#312
#313
#314
#315
b0000 #
b01000101 $
b01000110 &
b01000110 '
b0 )
b000000011 ,
1.
00
11
14
0N
b01000101 S
b01000101 W
b01000101 [
b01000101 b
0g
1t
#316
#317
#318
#319
#320
b0100 #
b10000011 $
b10000100 &
b10000100 '
b1 *
b000000111 ,
12
04
15
06
0F
0H
1J
1L
1O
b10 f
1g
b10 p
1u
#321
#322
#323
#324
#325
b0000 #
b10000100 $
b10000101 &
b10000101 '
b0 *
b000000001 ,
0.
10
01
02
05
16
0O
b10000100 T
b10000100 X
b10000100 \
b10000100 c
0g
0t
0u
#326
#327
#328
#329
#330
b10000100 &
b10000100 '
b000000000 ,
0-
00
b00 f
1h
0o
#331
#332
#333
#334
#335
b00000000 Q
b10000100 `
0h
#336
#337
#338
#339
#340
b01000101 $
b01000101 &
b01000101 '
1.
10
1F
1H
0J
0L
1i
b01 p
#341
#342
#343
#344
#345
b01000101 _
0i
#346
#347
#348
#349
#350
b00000000 $
b00000000 &
b00000000 '
0.
00
06
08
0F
0H
1k
b00 p
#351
#352
#353
#354
#355
b01000101 Q
0k
#356
#357
#358
#359
#360
b0010 #
b01000101 $
b01000110 &
b01000110 '
b1 )
b000000011 ,
1-
1.
11
14
16
18
1F
1H
1N
b01 f
1g
1o
b01 p
1t
#361
#362
#363
#364
#365
b0000 #
b01000110 $
b01000111 &
b01000111 '
b0 )
b000000001 ,
0.
10
01
12
0N
b01000110 S
b01000110 W
b01000110 [
b01000110 b
0g
0t
#366
#367
#368
#369
#370
b0100 #
b10000100 $
b10000101 &
b10000101 '
b1 *
02
04
0F
0H
1J
1L
1O
b10 f
1g
b10 p
#371
#372
#373
#374
#375
b0000 #
b10000101 $
b10000110 &
b10000110 '
b0 *
b000000011 ,
1.
00
11
14
0O
b10000101 T
b10000101 X
b10000101 \
b10000101 c
0g
1t
#376
#377
#378
#379
#380
b10000101 &
b10000101 '
b000000000 ,
0-
10
01
04
b00 f
1h
0o
0t
#381
#382
#383
#384
#385
b00000000 Q
b10000101 `
0h
#386
#387
#388
#389
#390
b01000110 $
b01000110 &
b01000110 '
0.
00
12
14
1F
1H
0J
0L
1i
b01 p
#391
#392
#393
#394
#395
b01000110 _
0i
#396
#397
#398
#399
#400
b00000000 $
b00000000 &
b00000000 '
02
04
06
08
0F
0H
1k
b00 p
#401
#402
#403
#404
#405
b01000110 Q
0k
#406
#407
#408
#409
#410
b0010 #
b01000110 $
b01000111 &
b01000111 '
b1 )
b000000001 ,
1-
10
12
14
16
18
1F
1H
1N
b01 f
1g
1o
b01 p
#411
#412
#413
#414
#415
b0000 #
b01000111 $
b01001000 &
b01001000 '
b0 )
b000001111 ,
1.
00
11
04
15
08
19
1<
0N
b01000111 S
b01000111 W
b01000111 [
b01000111 b
0g
1t
1u
1v
#416
#417
#418
#419
#420
b0100 #
b10000101 $
b10000110 &
b10000110 '
b1 *
b000000011 ,
02
14
05
18
09
0<
0F
0H
1J
1L
1O
b10 f
1g
b10 p
0u
0v
#421
#422
#423
#424
#425
b0000 #
b10000110 $
b10000111 &
b10000111 '
b0 *
b000000001 ,
0.
10
01
12
0O
b10000110 T
b10000110 X
b10000110 \
b10000110 c
0g
0t
#426
#427
#428
#429
#430
b10000110 &
b10000110 '
b000000000 ,
0-
00
b00 f
1h
0o
#431
#432
#433
#434
#435
b00000000 Q
b10000110 `
0h
#436
#437
#438
#439
#440
b01000111 $
b01000111 &
b01000111 '
1.
10
1F
1H
0J
0L
1i
b01 p
#441
#442
#443
#444
#445
b01000111 _
0i
#446
#447
#448
#449
#450
b00000000 $
b00000000 &
b00000000 '
0.
00
02
04
06
08
0F
0H
1k
b00 p
#451
#452
#453
#454
#455
b01000111 Q
0k
#456
#457
#458
#459
#460
b0010 #
b01000111 $
b01001000 &
b01001000 '
b1 )
b000001111 ,
1-
1.
11
12
15
16
19
1<
1F
1H
1N
b01 f
1g
1o
b01 p
1t
1u
1v
#461
#462
#463
#464
#465
b0000 #
b01001000 $
b01001001 &
b01001001 '
b0 )
b000000001 ,
0.
10
01
02
05
06
09
1:
0N
b01001000 S
b01001000 W
b01001000 [
b01001000 b
0g
0t
0u
0v
#466
#467
#468
#469
#470
b0100 #
b10000110 $
b10000111 &
b10000111 '
b1 *
12
14
16
18
0:
0<
0F
0H
1J
1L
1O
b10 f
1g
b10 p
#471
#472
#473
#474
#475
b0000 #
b10000111 $
b10001000 &
b10001000 '
b0 *
b000001111 ,
1.
00
11
04
15
08
19
1<
0O
b10000111 T
b10000111 X
b10000111 \
b10000111 c
0g
1t
1u
1v
#476
#477
#478
#479
#480
b10000111 &
b10000111 '
b000000000 ,
0-
10
01
14
05
18
09
0<
b00 f
1h
0o
0t
0u
0v
#481
#482
#483
#484
#485
b00000000 Q
b10000111 `
0h
#486
#487
#488
#489
#490
b01001000 $
b01001000 &
b01001000 '
0.
00
02
04
06
08
1:
1<
1F
1H
0J
0L
1i
b01 p
#491
#492
#493
#494
#495
b01001000 _
0i
#496
#497
#498
#499
#500
b00000000 $
b00000000 &
b00000000 '
0:
0<
0F
0H
1k
b00 p
#501
#502
#503
#504
#505
b01001000 Q
0k
